{
  "name": "5e-wow-abilities",
  "title": "5E Warcraft Abilities",
  "description": "Changes the names of abilities to their World of Warcraft names.",

  "version": "0.2.0",
  "minimumCoreVersion": "0.7.7",
  "compatibleCoreVersion": "0.7.9",
  "author": "Ethaks",
  "authors": [
    {
      "name": "Ethaks",
      "ko-fi": "ethaks",
      "discord": "Ethaks#2903",
      "reddit": "u/ethaks"
    }
  ],
  "systems": ["dnd5e"],
  "esmodules": ["./5e-wow-abilities.js"],
  "url": "https://gitlab.com/Ethaks/fvtt-5e-wow-abilities",
  "manifest": "https://gitlab.com/Ethaks/fvtt-5e-wow-abilities/-/raw/master/module.json",
  "download": "https://gitlab.com/Ethaks/fvtt-5e-wow-abilities/-/archive/v0.2.0/fvtt-5e-wow-abilities.zip"
}
